Choice Made,Sure Bet,Expected Util (M x P),Magnitude,Probability,rSide,rRow,Date
lottery,0,11.5,23,0.5,1,0,2015_Jun_22_1957
sure,0,26.0,52,0.5,0,0,2015_Jun_22_1957
lottery,0,2.5,5,0.5,1,1,2015_Jun_22_1957
lottery,0,20.25,27,0.75,0,0,2015_Jun_22_1957
