Choice Made,Sure Bet,Expected Util (M x P),Magnitude,Probability,rSide,rRow,Date
lottery,0,15.25,61,0.25,1,1,2015_Jun_22_2013
lottery,0,11.0,44,0.25,1,0,2015_Jun_22_2013
sure,0,4.0,8,0.5,1,1,2015_Jun_22_2013
lottery,0,12.0,16,0.75,1,0,2015_Jun_22_2013
sure,0,20.25,27,0.75,0,0,2015_Jun_22_2013
sure,0,6.0,12,0.5,0,1,2015_Jun_22_2013
sure,0,9.25,37,0.25,1,0,2015_Jun_22_2013
sure,0,2.5,5,0.5,1,1,2015_Jun_22_2013
sure,0,17.25,23,0.75,0,0,2015_Jun_22_2013
sure,0,3.75,5,0.75,0,0,2015_Jun_22_2013
lottery,0,33.0,44,0.75,0,0,2015_Jun_22_2014
lottery,0,6.75,27,0.25,0,0,2015_Jun_22_2014
lottery,0,5.75,23,0.25,1,0,2015_Jun_22_2014
lottery,0,23.25,31,0.75,0,0,2015_Jun_22_2014
sure,0,4.5,6,0.75,0,1,2015_Jun_22_2014
