Choice Made,Sure Bet,Expected Util (M x P),Magnitude,Probability,rSide,rRow,Date
sure,5,11.5,23,0.5,0,0,2015_Jun_22_2047
sure,5,30.5,61,0.5,1,1,2015_Jun_22_2047
lottery,5,10.5,14,0.75,1,1,2015_Jun_22_2047
